{
  "EDITOR_STATE": {
    "allProjectFiles": {
      "83530720-f427-434e-88a9-2c2650c6b1d5": {
        "id": "83530720-f427-434e-88a9-2c2650c6b1d5",
        "parent": null,
        "name": "indugitlab.js",
        "type": "JS_LAMBDA",
        "isDirectory": false,
        "children": [],
        "isRemovable": true,
        "filePath": "indugitlab.js",
        "cursor": {
          "lineNumber": 1,
          "column": 1
        },
        "config": {
          "runtime": "nodejs10.x",
          "handler": "handler",
          "timeout": 60,
          "memory": 128,
          "layers": []
        },
        "triggers": [
          {
            "resourceName": "snsusEast1udithTest",
            "config": {}
          }
        ]
      }
    },
    "openFiles": [
      "83530720-f427-434e-88a9-2c2650c6b1d5"
    ],
    "currentFileId": "83530720-f427-434e-88a9-2c2650c6b1d5",
    "resources": {
      "snsusEast1udithTest": {
        "name": "snsusEast1udithTest",
        "type": "SNS",
        "config": {
          "topicMode": 1,
          "topicName": "udith-test",
          "topicArn": "arn:aws:sns:us-east-1:318300609668:udith-test",
          "topicRegion": "us-east-1",
          "snsType": 0,
          "subscriptions": []
        }
      },
      "sqsKTestSQS": {
        "name": "sqsKTestSQS",
        "type": "SQS",
        "config": {
          "mode": 1,
          "existing": true,
          "name": "KTestSQS",
          "url": "https://sqs.us-east-1.amazonaws.com/318300609668/KTestSQS",
          "selectedRegion": "us-east-1",
          "deliveryDelay": "0",
          "deliveryDelayUnit": "seconds",
          "queueType": "standardQueue",
          "defaultVisibilityTimeout": "30",
          "defaultVisibilityTimeoutUnit": "seconds",
          "messageRetentionPeriod": "345600",
          "messageRetentionPeriodUnit": "seconds",
          "maximumMessageSize": 256,
          "receiveMessageWaitTime": "0",
          "queueARN": "arn:aws:sqs:us-east-1:318300609668:KTestSQS"
        }
      }
    },
    "customTemplate": {
      "dialect": null,
      "definitions": null
    },
    "envVariables": [
      {
        "lambdaId": "all",
        "varKey": "SIGMA_AWS_ACC_ID",
        "varValue": null,
        "shouldPersist": false,
        "displayOnly": false,
        "editable": false
      }
    ],
    "packageJSON": {
      "dependencies": {
        "aws-sdk": {
          "name": "aws-sdk",
          "language": "nodejs",
          "version": "2.176.0",
          "dev": true,
          "notRemovable": false
        }
      }
    }
  },
  "PROJECT_META": {
    "projectName": "indugitlab",
    "projectDescription": "",
    "projectVersion": "1.0.0",
    "projectRegion": "us-east-1",
    "platform": "AWS",
    "language": "nodejs",
    "platformRegions": {},
    "lastSave": 1584959839659
  },
  "VCS_STATE": {
    "provider": "GitLab",
    "repo": {
      "name": "indugitlab",
      "url": "https://gitlab.com/indunil1992rajapakse/indugitlab"
    }
  }
}